<?xml version="1.0" encoding="utf-8"?>
<!-- Generator: Adobe Illustrator 16.0.0, SVG Export Plug-In . SVG Version: 6.00 Build 0)  -->
<!DOCTYPE svg PUBLIC "-//W3C//DTD SVG 1.1//EN" "http://www.w3.org/Graphics/SVG/1.1/DTD/svg11.dtd">
<svg version="1.1" id="Layer_1" xmlns="http://www.w3.org/2000/svg" xmlns:xlink="http://www.w3.org/1999/xlink" x="0px" y="0px"
	 width="480px" height="519px" viewBox="0 0 480 519" enable-background="new 0 0 480 519" xml:space="preserve">
<g>
	<g>
		<path fill-rule="evenodd" clip-rule="evenodd" fill="#FFFFFF" d="M398.305,154.987h-0.05l0,0l0,0l0,0l0,0h-0.025l0,0l0,0
			l-0.075,0.014l0,0c-18.633,0.148-37.266,0.086-55.898,0.086l0,0c-18.782,0-37.59,0.039-56.386-0.074l0,0
			c-3.209-0.012-5.158,0.724-6.906,3.796l0,0c-18.619,32.545-37.391,65.04-56.285,97.484l0,0c-1.635,2.823-1.448,4.721,0.1,7.418
			l0,0c18.858,32.446,37.628,64.939,56.31,97.51l0,0c1.549,2.711,3.172,3.798,6.394,3.747l0,0c37.428-0.086,74.843-0.086,112.271,0
			l0,0c3.334,0.051,5.158-0.986,6.843-3.871l0,0c18.67-32.558,37.44-65.027,56.324-97.485l0,0c1.573-2.734,1.523-4.683-0.05-7.417
			l0,0c-18.858-32.42-37.603-64.94-56.298-97.484l0,0C403.05,156.011,401.376,154.987,398.305,154.987z"/>
		<path fill-rule="evenodd" clip-rule="evenodd" fill="#FFFFFF" d="M70.134,40.818c-18.671,32.545-37.441,65.053-56.323,97.51l0,0
			c-1.475,2.561-1.537,4.372-0.025,6.969l0,0c18.933,32.595,37.79,65.24,56.547,97.935l0,0c1.499,2.584,3.172,3.521,6.132,3.496l0,0
			c18.796-0.138,37.578-0.075,56.386-0.075l0,0c18.795,0,37.615-0.063,56.397,0.075l0,0c3.11,0.025,4.896-0.825,6.532-3.646l0,0
			c18.72-32.732,37.577-65.377,56.522-97.984l0,0c1.411-2.397,1.374-4.121,0-6.544l0,0c-18.945-32.595-37.802-65.239-56.547-97.934
			l0,0c-1.586-2.773-3.259-3.834-6.457-3.797l0,0c-37.439,0.112-74.868,0.112-112.296,0l0,0c-0.024,0-0.037,0-0.062,0l0,0
			C73.617,36.822,71.807,37.921,70.134,40.818L70.134,40.818z"/>
		<path fill-rule="evenodd" clip-rule="evenodd" fill="#FFFFFF" d="M72.856,279.621c-18.683,32.546-37.452,65.04-56.322,97.523l0,0
			c-1.475,2.51-1.574,4.345-0.05,6.943l0,0c18.87,32.458,37.665,64.938,56.298,97.534l0,0c1.81,3.122,3.871,4.046,7.318,4.035l0,0
			c18.483-0.163,36.965-0.089,55.411-0.089l0,0c18.67,0,37.29-0.074,55.911,0.089l0,0c3.497,0.036,5.469-1.024,7.269-4.134l0,0
			c18.557-32.434,37.265-64.791,56.047-97.087l0,0c1.574-2.709,1.737-4.645,0.1-7.417l0,0
			c-18.882-32.444-37.665-64.94-56.322-97.497l0,0c-1.587-2.797-3.322-3.746-6.482-3.746l0,0c-37.602,0.124-75.18,0.124-112.771,0
			l0,0c-0.012,0-0.037,0-0.05,0l0,0C75.978,275.776,74.379,276.962,72.856,279.621L72.856,279.621z"/>
	</g>
</g>
</svg>
