{
    "/js/app.js": "/js/app.js",
    "/css/app.min.css": "/css/app.min.css",
    "/js/uploads.min.js": "/js/uploads.min.js",
    "/js/tables.min.js": "/js/tables.min.js",
    "/js/system.min.js": "/js/system.min.js",
    "/js/ordering.min.js": "/js/ordering.min.js",
    "/js/more-fields.min.js": "/js/more-fields.min.js",
    "/js/phases-process.min.js": "/js/phases-process.min.js"
}